{
  "webroot":  "wwwroot",
  "version": "1.0.0-*",
  "tooling": {
    "defaultNamespace":  "AngularJS_SPA"
  },
  "compilationOptions": {
    "emitEntryPoint": true
  },

  "dependencies": {
    "Microsoft.AspNet.Diagnostics": "1.0.0-rc1-final",
    "Microsoft.AspNet.IISPlatformHandler": "1.0.0-rc1-final",
    "Microsoft.AspNet.Mvc": "6.0.0-rc1-final",
    "Microsoft.AspNet.Mvc.TagHelpers": "6.0.0-rc1-final",
    "Microsoft.AspNet.Server.Kestrel": "1.0.0-rc1-final",
    "Microsoft.AspNet.StaticFiles": "1.0.0-rc1-final",
    "Microsoft.AspNet.Tooling.Razor": "1.0.0-rc1-final",
    "Microsoft.Extensions.Logging.Console": "1.0.0-rc1-final",
    "Microsoft.Extensions.Logging.Debug": "1.0.0-rc1-final",
    "Microsoft.AspNet.AngularServices": "1.0.0-alpha6",
    "AutoMapper": "4.2.1",
    "Microsoft.ApplicationInsights.AspNet": "1.0.0-rc1",
    "Microsoft.VisualStudio.Web.BrowserLink.Loader": "14.0.0-rc1-final"
  },

  "commands": {
    "web": "Microsoft.AspNet.Server.Kestrel"
  },

  "frameworks": {
    "dnx451": { },
    "dnxcore50": { }
  },

  "exclude": [
    "wwwroot",
    "node_modules",
    "bower_components"
  ],
  "publishExclude": [
    "node_modules",
    "bower_components",
    "**.xproj",
    "**.user",
    "**.vspscc"
  ],
  "scripts": {
    "prepublish": [
      "npm install",
      "gulp"
    ]
  }
}
